{
    "plugins": {
        "@textlint/text": {
            "extensions": [".org"]
        },
        "latex2e": true
    },
    "rules": {
        "write-good": false,
        "no-start-duplicated-conjunction": false,
        "max-comma": false,
        "terminology": false,
        "period-in-list-item": false,
        "abbr-within-parentheses": false,
        "alex": false,
        "common-misspellings": true,
        "en-max-word-count": false,
        "diacritics": false,
        "stop-words": false,
        "ginger": false
    }
}
